{
    "KPackageStructure": "KWin/Effect",
    "KPlugin": {
        "Authors": [
            {
                "Email": "rivolaks@hot.ee, vlad.zahorodnii@kde.org",
                "Name": "Rivo Laks, Vlad Zahorodnii",
                "Name[ar]": "ريفو لاكس، فلاد زاهورودني",
                "Name[be]": "Rivo Laks, Vlad Zahorodnii",
                "Name[bg]": "Rivo Laks, Vlad Zahorodnii",
                "Name[ca@valencia]": "Rivo Laks, Vlad Zahorodnii",
                "Name[ca]": "Rivo Laks, Vlad Zahorodnii",
                "Name[cs]": "Rivo Laks, Vlad Zahorodnii",
                "Name[en_GB]": "Rivo Laks, Vlad Zahorodnii",
                "Name[es]": "Rivo Laks, Vlad Zahorodnii",
                "Name[et]": "Rivo Laks, Vlad Zahorodnii",
                "Name[eu]": "Rivo Laks, Vlad Zahorodnii",
                "Name[fr]": "Rivo Laks, Vlad Zahorodnii",
                "Name[ia]": "Rivo Laks, Vlad Zahorodnii",
                "Name[it]": "Rivo Laks, Vlad Zahorodnii",
                "Name[ka]": "Vlad Zahorodnii",
                "Name[nl]": "Rivo Laks, Vlad Zahorodnii",
                "Name[pl]": "Rivo Laks, Vlad Zahorodnii",
                "Name[pt]": "Rivo Laks, Vlad Zahorodnii",
                "Name[ru]": "Rivo Laks, Влад Загородний",
                "Name[sl]": "Rivo Laks, Vlad Zahorodnii",
                "Name[ta]": "ரிவோ லாக்சு, விலாட் ஜாஹொரிடுனி",
                "Name[tr]": "Rivo Laks, Vlad Zahorodnii",
                "Name[uk]": "Rivo Laks, Влад Завгородній",
                "Name[vi]": "Rivo Laks, Vlad Zahorodnii",
                "Name[x-test]": "xxRivo Laks, Vlad Zahorodniixx",
                "Name[zh_CN]": "Rivo Laks, Vlad Zahorodnii",
                "Name[zh_TW]": "Rivo Laks, Vlad Zahorodnii"
            }
        ],
        "Category": "Appearance",
        "Description": "Squash windows when they are minimized",
        "Description[ar]": "تنكمش النوافذ عند تصغيرها",
        "Description[be]": "Сціскаць вокны, калі яны згорнутыя",
        "Description[bg]": "Свиване на прозорците при минимизиране",
        "Description[ca@valencia]": "Amuntega les finestres quan estan minimitzades",
        "Description[ca]": "Amuntega les finestres quan estan minimitzades",
        "Description[en_GB]": "Squash windows when they are minimised",
        "Description[es]": "Aplastar las ventanas cuando se minimizan",
        "Description[et]": "Minimeeritud akende taas üleshüpitamine",
        "Description[eu]": "Zanpatu leihoak haiek ikonotzen direnean",
        "Description[fr]": "Déformer les fenêtres lors de leur minimisation",
        "Description[ia]": "Deforma fenestras durante que illes es minimisate",
        "Description[it]": "Schiaccia le finestre quando vengono minimizzate",
        "Description[nl]": "Krimp vensters wanneer ze geminimaliseerd zijn",
        "Description[pl]": "Ściąga okna przy ich minimalizacji",
        "Description[pt]": "Deformar as janelas quando são minimizadas",
        "Description[ru]": "Сжатие окна при сворачивании",
        "Description[sl]": "Skrči okna, ko so pomanjšana",
        "Description[ta]": "சாளரங்களை ஒதுக்கும்போது அவற்றை நசுக்குவது போல் அசைவூட்டும்",
        "Description[tr]": "Pencereler simge durumuna küçültüldüğünde onları tıkıştır",
        "Description[uk]": "Складує вікна, якщо їх мінімізовано",
        "Description[vi]": "Ép nhỏ cửa sổ khi thu nhỏ",
        "Description[x-test]": "xxSquash windows when they are minimizedxx",
        "Description[zh_CN]": "窗口最小化时绘制收缩过渡动画",
        "Description[zh_TW]": "最小化視窗時擠壓它們",
        "EnabledByDefault": true,
        "Icon": "preferences-system-windows-effect-squash",
        "Id": "kwin4_effect_squash",
        "License": "GPL",
        "Name": "Squash",
        "Name[ar]": "الانكماش",
        "Name[be]": "Сцісканне",
        "Name[bg]": "Свиване",
        "Name[ca@valencia]": "Amuntega",
        "Name[ca]": "Amuntega",
        "Name[en_GB]": "Squash",
        "Name[es]": "Aplastar",
        "Name[et]": "Üleshüpe",
        "Name[eu]": "Zanpatu",
        "Name[fr]": "Compresser",
        "Name[ia]": "Squash",
        "Name[it]": "Schiaccia",
        "Name[ka]": "დაჭმუჭნვა",
        "Name[nl]": "Krimpen",
        "Name[pl]": "Ściąganie",
        "Name[pt]": "Esmagar",
        "Name[ru]": "Сжатие",
        "Name[sl]": "Strni",
        "Name[ta]": "நசுக்கு",
        "Name[tr]": "Tıkıştır",
        "Name[uk]": "Складування",
        "Name[vi]": "Ép nhỏ",
        "Name[x-test]": "xxSquashxx",
        "Name[zh_CN]": "最小化过渡动画 (收缩)",
        "Name[zh_TW]": "壓縮",
        "Version": "1",
        "Website": ""
    },
    "X-KDE-Ordering": "60",
    "X-KDE-ParentApp": "",
    "X-KWin-Exclusive-Category": "minimize",
    "X-KWin-Video-Url": "https://files.kde.org/plasma/kwin/effect-videos/minimize.ogv",
    "X-Plasma-API": "javascript",
    "X-Plasma-MainScript": "code/main.js"
}
