{
    "KPlugin": {
        "BugReportUrl": "https://bugs.kde.org/enter_bug.cgi?product=systemsettings&component=kcm_kwintouchscreen",
        "Description": "Configure touch screen swipe gestures",
        "Description[ar]": "اضبط إيماءات شاشة اللمس ",
        "Description[az]": "Toxunma ekranı jestlərini tənzimləyin",
        "Description[be]": "Наладжванне жэстаў вядзення пальцам па сэнсарным экране",
        "Description[bg]": "Конфигуриране на жестове за плъзгане на сензорен екран",
        "Description[ca@valencia]": "Configura els gestos de lliscament en la pantalla tàctil",
        "Description[ca]": "Configura els gestos de lliscament en la pantalla tàctil",
        "Description[cs]": "Nastavit gesta tahem na dotykové obrazovce",
        "Description[de]": "Wischgesten für Touchscreens einrichten",
        "Description[en_GB]": "Configure touch screen swipe gestures",
        "Description[es]": "Configurar los gestos de deslizamiento de la pantalla táctil",
        "Description[et]": "Puuteekraani žestide seadistamine",
        "Description[eu]": "Konfiguratu ukimen-pantailako kolpe arinen keinuak",
        "Description[fi]": "Kosketusnäytön pyyhkäisyeleiden asetukset",
        "Description[fr]": "Configurer les gestes de balayage de l'écran tactile",
        "Description[ia]": "Configura gestos e glissar de schermo tactil",
        "Description[id]": "Konfigurasikan gestur usapan layar sentuh",
        "Description[it]": "Configura gesti dello schermo a sfioramento",
        "Description[ja]": "タッチスクリーンでのスワイプジェスチャーを設定",
        "Description[ka]": "სენსორიანი ეკრანის გასმის ჟესტების მორგება",
        "Description[ko]": "터치 스크린 밀기 제스처 설정",
        "Description[nl]": "Veeggebaren voor aanraakscherm configureren",
        "Description[nn]": "Set opp fingerrørsler på trykkskjerm",
        "Description[pl]": "Ustawienia gestów na ekranie dotykowym",
        "Description[pt]": "Configurar os gestos de deslizamento do ecrã táctil",
        "Description[pt_BR]": "Configurar os gestos da tela sensível ao toque",
        "Description[ro]": "Configurează gesturi de tragere pe ecran tactil",
        "Description[ru]": "Настройка действий при проведении по сенсорному экрану",
        "Description[sk]": "Nastaviť ťahacie gestá dotykovej obrazovky",
        "Description[sl]": "Prilagodite geste drsenja po zaslonu z dotikom",
        "Description[sv]": "Anpassa draggester för pekskärm",
        "Description[ta]": "தொடுதிரையில் பயன்படுத்தக்கூடிய சைகைகளை அமையுங்கள்",
        "Description[tr]": "Dokunmatik ekran süpürme hareketlerini yapılandır",
        "Description[uk]": "Налаштовування жестів на сенсорному екрані",
        "Description[vi]": "Cấu hình các động tác hất của màn hình cảm ứng",
        "Description[x-test]": "xxConfigure touch screen swipe gesturesxx",
        "Description[zh_CN]": "配置触摸屏滑动手势",
        "Description[zh_TW]": "設定觸控螢幕滑動手勢",
        "Icon": "preferences-desktop-gestures-touch",
        "Name": "Touchscreen Gestures",
        "Name[ar]": "إيماءات شاشة اللمس",
        "Name[be]": "Жэсты сэнсарнага экрана",
        "Name[bg]": "Жестове за сензорен екран",
        "Name[ca@valencia]": "Gestos de pantalla tàctil",
        "Name[ca]": "Gestos de pantalla tàctil",
        "Name[cs]": "Gesta dotykové obrazovky",
        "Name[en_GB]": "Touchscreen Gestures",
        "Name[es]": "Gestos de la pantalla táctil",
        "Name[eu]": "Ukimen-pantailako keinuak",
        "Name[fr]": "Gestes de balayage de l'écran tactile",
        "Name[ia]": "Gestures de schermo tactile",
        "Name[it]": "Gesti dello schermo tattile",
        "Name[ka]": "სენსორული ეკრანის ჟესტები",
        "Name[nl]": "Veeggebaren voor aanraakscherm",
        "Name[pl]": "Gesty na ekranie dotykowym",
        "Name[pt]": "Gestos do Ecrã Táctil",
        "Name[ru]": "Поддержка жестов для сенсорных экранов",
        "Name[sl]": "Geste po zaslonu z dotikom",
        "Name[ta]": "தொடுதிரைக்கான சைகைகள்",
        "Name[tr]": "Dokunmatik Ekran Hareketleri",
        "Name[uk]": "Жести на сенсорній панелі",
        "Name[vi]": "Các động tác của màn hình cảm ứng",
        "Name[x-test]": "xxTouchscreen Gesturesxx",
        "Name[zh_CN]": "触摸屏手势",
        "Name[zh_TW]": "觸控螢幕手勢"
    },
    "X-DocPath": "kcontrol/kwintouchscreen/index.html",
    "X-KDE-Keywords": "kwin,window,manager,effect,edge,border,action,switch,desktop,desktop edges,screen edges,side of screen,screen behavior,touch screen",
    "X-KDE-Keywords[ar]": "كوين,نافذة,مدير,تأثير,حافة,إطار,إجراء,تبديل,حواف,زوايا,زاوية,جانب الشاشة,لمس,شاشة لمس",
    "X-KDE-Keywords[az]": "pəncərə,menecer,effekt,sərhəd,kənar,fəaliyyət,dəyişmə,keçiş,iş masası,iş masası kənarları,ekran kənarları,ekran davranışları,toxunma ekranı",
    "X-KDE-Keywords[ca@valencia]": "kwin,finestra,gestor,efecte,vora,frontera,acció,canvi,escriptori,vores de l'escriptori,vores de la pantalla,costat de la pantalla,comportament de la pantalla,pantalla tàctil",
    "X-KDE-Keywords[ca]": "kwin,finestra,gestor,efecte,vora,frontera,acció,canvi,escriptori,vores de l'escriptori,vores de la pantalla,costat de la pantalla,comportament de la pantalla,pantalla tàctil",
    "X-KDE-Keywords[da]": "kwin,vindue,håndtering,manager,effekt,hjørne,kant,handling,skift,skrivebord,kwin skærmkanter,skrivebordskanter,skærmkanter,maksimer vinduer,tile windows,fliser,felter,siden af skærmen,skærmens opførsel,touch,skift skrivebord,virtuelle skriveborde,skærmhjørner,hjørner",
    "X-KDE-Keywords[de]": "KWin,Fenster,Verwaltung,Effekt,Kante,Rand,Aktion,Wechseln,Desktop,Arbeitsfläche,Bildschirmkanten,Desktopkanten,Bildschirmseite,Bildschirmverhalten,Touchscreen",
    "X-KDE-Keywords[el]": "kwin,παράθυρο,διαχειριστής,εφέ,άκρη,περίγραμμα,ενέργεια,εναλλαγή,επιφάνεια εργασίας,άκρες επιφάνειας εργασίας,άκρες οθόνης,πλευρά οθόνης,συμπεριφορά οθόνης, οθόνη αφής",
    "X-KDE-Keywords[en_GB]": "kwin,window,manager,effect,edge,border,action,switch,desktop,desktop edges,screen edges,side of screen,screen behaviour,touch screen",
    "X-KDE-Keywords[es]": "kwin,ventana,gestor,efecto,esquina,borde,acción,cambiar,escritorio,bordes del escritorio,bordes de la pantalla,lado de la pantalla,comportamiento de la pantalla,pantalla táctil",
    "X-KDE-Keywords[et]": "kwin,aken,haldur,efekt,nurk,serv,piire,toiming,lülitamine,töölaud,töölaua servad,ekraani servad,ekraani äär,ekraani käitumine,puuteekraan",
    "X-KDE-Keywords[eu]": "kwin,leiho,kudeatzaile,efektu,izkin,ertz,ekintza,aldatu,mahaigain,mahaigainaren ertzak,pantailen ertzak,pantailaren aldea,pantailaren portaera,ukipen-pantaila",
    "X-KDE-Keywords[fi]": "kwin,ikkuna,hallinta,tehoste,kulma,laita,reuna,toiminto,vaihda,työpöytä,työpöydän reunat,näytön reunat,näytön laita,näytön käyttäytyminen,kosketusnäyttö",
    "X-KDE-Keywords[fr]": "kwin, fenêtre, gestionnaire, effet, bord, bordure, action, bascule, bureau, bords du bureau, bords de l'écran, côté de l'écran, comportement de l'écran, écran tactile",
    "X-KDE-Keywords[gl]": "kwin,window,xanela,manager,xestor,effect,efecto,edge,beira,bordo,contorno,esquina,border,action,acción,switch,cambiar,conmutar,trocar,desktop,escritorio,desktop edges,screen edges,pantalla,side of screen,screen behavior,comportamento,touch screen,táctil",
    "X-KDE-Keywords[hu]": "kwin,ablak,kezelő,effektus,szél,szegély,művelet,váltás,asztal,asztalszél,képernyőszél,képernyőoldal,képernyő működése,érintőképernyő",
    "X-KDE-Keywords[ia]": "kwin,window,manager,effect,edge,border,action,switch,desktop,desktop edges,screen edges,side of screen,screen behavior,touch screen",
    "X-KDE-Keywords[id]": "kwin,window,pengelola,efek,tepi,bingkai,aksi,alih,desktop,tepian desktop,tepian layar,sisi layar,perilaku layar,layar sentuh",
    "X-KDE-Keywords[it]": "kwin,finestra,gestore,effetto,angolo,bordo,azione,selettore,desktop,bordi desktop,bordi schermo,lato dello schermo,comportamento schermo,schermo a sfioramento",
    "X-KDE-Keywords[ko]": "kwin,window,manager,effect,edge,border,action,switch,desktop,desktop edges,screen edges,side of screen,screen behavior,touch screen,창,관리자,효과,경계,경계선,동작,액션,데스크톱,화면 경계,경계,터치,터치 스크린,터치스크린,바탕 화면",
    "X-KDE-Keywords[lt]": "kwin,lango,langų,langu,tvarkytuvė,tvarkytuve,efektas,efektai,kraštas,krastas,rėmelis,remelis,rėmas,remas,veiksmas,veiksmai,perjungti,perjugimo,perjungimas,darbalaukis,darbalaukio,darbalaukio kraštai,darbalaukio kraštas,darbalaukio krastai,darbalaukio krastas,ekrano kraštai,ekrano krastai,ekrano kraštas,ekrano krastas,ekrano šonas,ekrano sonas,ekrano pusė,ekrano puse,ekrano elgsena,ekrano elgsesys,jutiklinis ekranas,jutiminis ekranas,jautrusis ekranas,touchscreen,touch screen",
    "X-KDE-Keywords[nl]": "kwin,venster,beheerder,effect,kant,rand,actie,omschakelen,bureaublad,bureaubladkanten,schermkanten,zijkant van het scherm,schermgedrag,aanraakscherm",
    "X-KDE-Keywords[nn]": "kwin,vindauge,handsamar,effekt,kant,ramme,handling,byte,skrivebord,skrivebordkantar,skjermkantar,skjermside,skjermåtferd,trykkskjerm",
    "X-KDE-Keywords[pl]": "kwin,okno,menadżer,efekt,krawędź,obramowanie,działanie,przełącz,pulpit,krawędzie pulpitu,krawędzie ekranu,strona ekranu,zachowanie ekranu,ekran dotykowy",
    "X-KDE-Keywords[pt]": "kwin,janela,gestor,efeito,extremo,contorno,acção,mudar,ecrã,extremos do ecrã no kwin,extremos do ecrã,maximizar as janelas,janelas lado-a-lado,lado do ecrã,comportamento do ecrã,ecrã táctil",
    "X-KDE-Keywords[pt_BR]": "kwin,janela,gerenciador,efeito,canto,contorno,borda,ação,mudar,área de trabalho,cantos da área de trabalho, desktop,lado da tela,comportamento da tela,touch screen",
    "X-KDE-Keywords[ro]": "kwin,fereastră,gestionar,efect,margine,muchie,latură,acțiune,schimbă,birou,marginile biroului,marginile ecranului,marginea ecranului,comportament ecran,ecran tactil",
    "X-KDE-Keywords[ru]": "kwin,window,manager,effect,corner,edge,border,action,switch,desktop,kwin screen edges,desktop edges,screen edges,maximize windows,tile windows,side of screen,screen behavior,switch desktop,virtual desktop,screen corners,окно,окон,диспетчер,эффект,край,граница,действие,переключить,рабочий стол,края экрана kwin,края экрана,края рабочего стола,распахнуть окна,мозаика окон,край экрана,поведение экрана,переключить рабочий стол,виртуальный рабочий стол,углы рабочего стола,углы экрана,тачскрин,сенсорный экран,touch screen",
    "X-KDE-Keywords[sk]": "Kwin, okná, manažér, efekt, okraj, hranice, akcie, prepínač, desktop, okraje plochy,Okraje obrazovky, bočná strana obrazovky, správanie obrazovky, dotyková obrazovka",
    "X-KDE-Keywords[sl]": "kwin,okno,upravljalnik oken,upravljanje oken,učinki,rob,obroba,dejanje,preklopi,preklapljanje,robovi namizja,robovi zaslona,rob zaslona,obnašanje zaslona,zaslon na dotik",
    "X-KDE-Keywords[sr@ijekavian]": "kwin,window,manager,effect,edge,border,action,switch,desktop,desktop edges,screen edges,side of screen,screen behavior,touch screen,К‑вин,прозор,менаџер,ефекат,ивица,радња,пребаци,површ,ивице екрана,ивице површи,странице прозора,понашање прозора,додирник",
    "X-KDE-Keywords[sr@ijekavianlatin]": "kwin,window,manager,effect,edge,border,action,switch,desktop,desktop edges,screen edges,side of screen,screen behavior,touch screen,KWin,prozor,menadžer,efekat,ivica,radnja,prebaci,površ,ivice ekrana,ivice površi,stranice prozora,ponašanje prozora,dodirnik",
    "X-KDE-Keywords[sr@latin]": "kwin,window,manager,effect,edge,border,action,switch,desktop,desktop edges,screen edges,side of screen,screen behavior,touch screen,KWin,prozor,menadžer,efekat,ivica,radnja,prebaci,površ,ivice ekrana,ivice površi,stranice prozora,ponašanje prozora,dodirnik",
    "X-KDE-Keywords[sr]": "kwin,window,manager,effect,edge,border,action,switch,desktop,desktop edges,screen edges,side of screen,screen behavior,touch screen,К‑вин,прозор,менаџер,ефекат,ивица,радња,пребаци,површ,ивице екрана,ивице површи,странице прозора,понашање прозора,додирник",
    "X-KDE-Keywords[sv]": "kwin,fönster,hanterare,effekt,kant,gräns,åtgärd,byta,skrivbord,skrivbordskanter,skärmkanter,skärmsidan,skärmbeteende,pekskärm",
    "X-KDE-Keywords[ta]": "kwin,window,manager,effect,edge,border,action,switch,desktop,desktop edges,screen edges,side of screen,screen behavior,touch screen, கேவின், சாளரம், நிர்வாகி, மேலாளி, ஓரம், விளிம்பு, செயல், மாற்று, பணிமேடை, திரையின் ஓரம், ஓரங்கள், திரையின் நடத்தை, தொடுதிரை",
    "X-KDE-Keywords[tr]": "kwin,pencere,yönetici,efekt,kenar,sınır,eylem,geçiş,masaüstü,masaüstü kenarları,ekran kenarları,ekranın yan tarafı,ekran davranışı,dokunmatik ekran",
    "X-KDE-Keywords[uk]": "kwin,window,manager,effect,corner,edge,border,action,switch,desktop,desktop edges,screen edges,side of screen,screen behavior,touch screen,вікно,керування,край,кут,межа,сторона,бік,дія,перемикання,стільниця,плитка,край екрана,поведінка екрана,перемикання стільниць,віртуальна стільниця,сенсорна панель,сенсорний екран",
    "X-KDE-Keywords[vi]": "kwin,window,manager,effect,edge,border,action,switch,desktop,desktop edges,screen edges,side of screen,screen behavior,touch screen,cửa sổ,trình quản lí,hiệu ứng,cạnh,viền,hành động,chuyển,bàn làm việc,cạnh bàn làm việc,cạnh màn hình,phía bên màn hình,ứng xử của màn hình,màn hình cảm ứng",
    "X-KDE-Keywords[x-test]": "xxkwinxx,xxwindowxx,xxmanagerxx,xxeffectxx,xxedgexx,xxborderxx,xxactionxx,xxswitchxx,xxdesktopxx,xxdesktop edgesxx,xxscreen edgesxx,xxside of screenxx,xxscreen behaviorxx,xxtouch screenxx",
    "X-KDE-Keywords[zh_CN]": "kwin,window,manager,effect,corner,edge,border,action,switch,desktop,kwin screen edges,desktop edges,screen edges,maximize windows,tile windows,side of screen,screen behavior,switch desktop,virtual desktop,screen corners,窗口,管理,特效,四角,边缘,操作,切换,桌面,kwin 屏幕边缘,桌面边缘,最大化窗口,平铺窗口,屏幕行为,桌面切换,虚拟桌面,虚拟桌面切换,屏幕角落,触摸,触摸屏,触控,触控屏,屏幕",
    "X-KDE-Keywords[zh_TW]": "kwin,window,manager,effect,edge,border,action,switch,desktop,desktop edges,screen edges,side of screen,screen behavior,touch screen",
    "X-KDE-ParentApp": "kcontrol",
    "X-KDE-System-Settings-Parent-Category": "desktopbehavior",
    "X-KDE-Weight": 50
}
